Functional Programming with R
…
---

# `pmap` in action: individual plots (continued...)

.pull-left[
We can take a quick sneaky look at the data stored in the nested data column:

```r
ae_types$data[[1]]
```

```
## # A tibble: 36 x 2
##    period     attendances
##    <date>           <dbl>
##  1 2016-04-01     1214057
##  2 2016-05-01     1353206
##  3 2016-06-01     1282499
##  4 2016-07-01     1353477
##  5 2016-08-01     1254439
##  6 2016-09-01     1277578
##  7 2016-10-01     1317571
##  8 2016-11-01     1258205
##  9 2016-12-01     1277133
## 10 2017-01-01     1237177
## # ... with 26 more rows
```
…
